%YAML 1.1
%TAG !u! tag:unity3d.com,2011:
--- !u!114 &11400000
MonoBehaviour:
  m_ObjectHideFlags: 0
  m_PrefabParentObject: {fileID: 0}
  m_PrefabInternal: {fileID: 0}
  m_GameObject: {fileID: 0}
  m_Enabled: 1
  m_EditorHideFlags: 0
  m_Script: {fileID: 11500000, guid: 985b7025608de6a4580eb5f4a6349141, type: 3}
  m_Name: ProjectileAOE2
  m_EditorClassIdentifier: 
  abilityName: Projectile AOE2
  abilityIcon: {fileID: 21300000, guid: 423990e94dbe5d649a04df56932c0e9a, type: 3}
  energyCost: 10
  abilitySound: {fileID: 8300000, guid: 04f423841d9fff345a394fdb44f4bac4, type: 3}
  abilityBaseCD: 1
  shootableMask:
    serializedVersion: 2
    m_Bits: 2048
  maxAOEDamagePerTarget: 10
  explosionForce: 1000
  projectileLifetime: 2
  aoeDamageRadius: 5
  projectileLaunchForce: 500
  projectileToShoot: {fileID: 0}
