%YAML 1.1
%TAG !u! tag:unity3d.com,2011:
--- !u!114 &11400000
MonoBehaviour:
  m_ObjectHideFlags: 0
  m_PrefabParentObject: {fileID: 0}
  m_PrefabInternal: {fileID: 0}
  m_GameObject: {fileID: 0}
  m_Enabled: 1
  m_EditorHideFlags: 0
  m_Script: {fileID: 11500000, guid: 985b7025608de6a4580eb5f4a6349141, type: 3}
  m_Name: ProjectileAOE3
  m_EditorClassIdentifier: 
  abilityName: Projectile AOE3
  abilityIcon: {fileID: 21300000, guid: d19a3e3387cc8154e9549bfb20ab9071, type: 3}
  energyCost: 10
  abilitySound: {fileID: 8300000, guid: 50ceafc7b67e3455bb9d6bd445a3d5dc, type: 3}
  abilityBaseCD: 1
  shootableMask:
    serializedVersion: 2
    m_Bits: 2048
  maxAOEDamagePerTarget: 10
  explosionForce: 1000
  projectileLifetime: 2
  aoeDamageRadius: 5
  projectileLaunchForce: 500
  projectileToShoot: {fileID: 0}
